{
    "data": [
        {
            "id": "kxpkmm",
            "url": "https://wallhaven.cc/w/kxpkmm",
            "short_url": "https://whvn.cc/kxpkmm",
            "views": 2572,
            "favorites": 79,
            "source": "https://x.com/sciamano240/status/1870129953464815847",
            "purity": "sfw",
            "category": "anime",
            "dimension_x": 1966,
            "dimension_y": 3000,
            "resolution": "1966x3000",
            "ratio": "0.66",
            "file_size": 3088002,
            "file_type": "image/jpeg",
            "created_at": "2025-01-31 00:21:26",
            "colors": [
                "#cccccc",
                "#999999",
                "#fdadc7",
                "#996633",
                "#424153"
            ],
            "path": "https://w.wallhaven.cc/full/kx/wallhaven-kxpkmm.jpg",
            "thumbs": {
                "large": "https://th.wallhaven.cc/lg/kx/kxpkmm.jpg",
                "original": "https://th.wallhaven.cc/orig/kx/kxpkmm.jpg",
                "small": "https://th.wallhaven.cc/small/kx/kxpkmm.jpg"
            }
        },
        {
            "id": "jxmvkp",
            "url": "https://wallhaven.cc/w/jxmvkp",
            "short_url": "https://whvn.cc/jxmvkp",
            "views": 1227,
            "favorites": 34,
            "source": "https://www.reddit.com/r/Astronomy/comments/ehohv2/i_made_an_8k_wallpaper_of_some_of_my_favorite/",
            "purity": "sfw",
            "category": "general",
            "dimension_x": 4000,
            "dimension_y": 2198,
            "resolution": "4000x2198",
            "ratio": "1.82",
            "file_size": 2823490,
            "file_type": "image/jpeg",
            "created_at": "2025-01-31 23:45:00",
            "colors": [
                "#000000",
                "#424153",
                "#996633",
                "#663300",
                "#999999"
            ],
            "path": "https://w.wallhaven.cc/full/jx/wallhaven-jxmvkp.jpg",
            "thumbs": {
                "large": "https://th.wallhaven.cc/lg/jx/jxmvkp.jpg",
                "original": "https://th.wallhaven.cc/orig/jx/jxmvkp.jpg",
                "small": "https://th.wallhaven.cc/small/jx/jxmvkp.jpg"
            }
        },
        {
            "id": "zyl5qg",
            "url": "https://wallhaven.cc/w/zyl5qg",
            "short_url": "https://whvn.cc/zyl5qg",
            "views": 1121,
            "favorites": 29,
            "source": "https://twitter.com/tengcy1/status/1876203004745171374",
            "purity": "sfw",
            "category": "anime",
            "dimension_x": 2365,
            "dimension_y": 3500,
            "resolution": "2365x3500",
            "ratio": "0.68",
            "file_size": 812091,
            "file_type": "image/jpeg",
            "created_at": "2025-01-31 18:50:59",
            "colors": [
                "#424153",
                "#999999",
                "#abbcda",
                "#cccccc",
                "#ffffff"
            ],
            "path": "https://w.wallhaven.cc/full/zy/wallhaven-zyl5qg.jpg",
            "thumbs": {
                "large": "https://th.wallhaven.cc/lg/zy/zyl5qg.jpg",
                "original": "https://th.wallhaven.cc/orig/zy/zyl5qg.jpg",
                "small": "https://th.wallhaven.cc/small/zy/zyl5qg.jpg"
            }
        },
        {
            "id": "we2mqq",
            "url": "https://wallhaven.cc/w/we2mqq",
            "short_url": "https://whvn.cc/we2mqq",
            "views": 1108,
            "favorites": 43,
            "source": "",
            "purity": "sfw",
            "category": "general",
            "dimension_x": 3840,
            "dimension_y": 2160,
            "resolution": "3840x2160",
            "ratio": "1.78",
            "file_size": 4799113,
            "file_type": "image/png",
            "created_at": "2025-01-31 08:31:38",
            "colors": [
                "#000000",
                "#424153",
                "#999999",
                "#663300",
                "#cccccc"
            ],
            "path": "https://w.wallhaven.cc/full/we/wallhaven-we2mqq.png",
            "thumbs": {
                "large": "https://th.wallhaven.cc/lg/we/we2mqq.jpg",
                "original": "https://th.wallhaven.cc/orig/we/we2mqq.jpg",
                "small": "https://th.wallhaven.cc/small/we/we2mqq.jpg"
            }
        },
        {
            "id": "85ldl1",
            "url": "https://wallhaven.cc/w/85ldl1",
            "short_url": "https://whvn.cc/85ldl1",
            "views": 964,
            "favorites": 44,
            "source": "",
            "purity": "sfw",
            "category": "people",
            "dimension_x": 1280,
            "dimension_y": 1920,
            "resolution": "1280x1920",
            "ratio": "0.67",
            "file_size": 914464,
            "file_type": "image/jpeg",
            "created_at": "2025-01-30 19:49:33",
            "colors": [
                "#ffffff",
                "#cccccc",
                "#663300",
                "#996633",
                "#999999"
            ],
            "path": "https://w.wallhaven.cc/full/85/wallhaven-85ldl1.jpg",
            "thumbs": {
                "large": "https://th.wallhaven.cc/lg/85/85ldl1.jpg",
                "original": "https://th.wallhaven.cc/orig/85/85ldl1.jpg",
                "small": "https://th.wallhaven.cc/small/85/85ldl1.jpg"
            }
        },
        {
            "id": "yxyvek",
            "url": "https://wallhaven.cc/w/yxyvek",
            "short_url": "https://whvn.cc/yxyvek",
            "views": 947,
            "favorites": 26,
            "source": "",
            "purity": "sfw",
            "category": "general",
            "dimension_x": 1920,
            "dimension_y": 1080,
            "resolution": "1920x1080",
            "ratio": "1.78",
            "file_size": 331983,
            "file_type": "image/jpeg",
            "created_at": "2025-01-31 20:14:48",
            "colors": [
                "#424153",
                "#999999",
                "#996633",
                "#e7d8b1",
                "#000000"
            ],
            "path": "https://w.wallhaven.cc/full/yx/wallhaven-yxyvek.jpg",
            "thumbs": {
                "large": "https://th.wallhaven.cc/lg/yx/yxyvek.jpg",
                "original": "https://th.wallhaven.cc/orig/yx/yxyvek.jpg",
                "small": "https://th.wallhaven.cc/small/yx/yxyvek.jpg"
            }
        },
        {
            "id": "85lre2",
            "url": "https://wallhaven.cc/w/85lre2",
            "short_url": "https://whvn.cc/85lre2",
            "views": 1009,
            "favorites": 47,
            "source": "https://www.artstation.com/abrar_khan",
            "purity": "sfw",
            "category": "general",
            "dimension_x": 3840,
            "dimension_y": 1477,
            "resolution": "3840x1477",
            "ratio": "2.6",
            "file_size": 1948662,
            "file_type": "image/jpeg",
            "created_at": "2025-01-31 18:38:17",
            "colors": [
                "#424153",
                "#333399",
                "#cccccc",
                "#ffffff",
                "#000000"
            ],
            "path": "https://w.wallhaven.cc/full/85/wallhaven-85lre2.jpg",
            "thumbs": {
                "large": "https://th.wallhaven.cc/lg/85/85lre2.jpg",
                "original": "https://th.wallhaven.cc/orig/85/85lre2.jpg",
                "small": "https://th.wallhaven.cc/small/85/85lre2.jpg"
            }
        },
        {
            "id": "3ldrjd",
            "url": "https://wallhaven.cc/w/3ldrjd",
            "short_url": "https://whvn.cc/3ldrjd",
            "views": 941,
            "favorites": 43,
            "source": "",
            "purity": "sfw",
            "category": "general",
            "dimension_x": 3840,
            "dimension_y": 1477,
            "resolution": "3840x1477",
            "ratio": "2.6",
            "file_size": 1493714,
            "file_type": "image/jpeg",
            "created_at": "2025-02-01 09:22:51",
            "colors": [
                "#000000",
                "#660000",
                "#424153",
                "#990000",
                "#cc3333"
            ],
            "path": "https://w.wallhaven.cc/full/3l/wallhaven-3ldrjd.jpg",
            "thumbs": {
                "large": "https://th.wallhaven.cc/lg/3l/3ldrjd.jpg",
                "original": "https://th.wallhaven.cc/orig/3l/3ldrjd.jpg",
                "small": "https://th.wallhaven.cc/small/3l/3ldrjd.jpg"
            }
        },
        {
            "id": "gpo27l",
            "url": "https://wallhaven.cc/w/gpo27l",
            "short_url": "https://whvn.cc/gpo27l",
            "views": 844,
            "favorites": 31,
            "source": "https://www.artstation.com/artwork/rl2zJ5",
            "purity": "sfw",
            "category": "general",
            "dimension_x": 3840,
            "dimension_y": 2160,
            "resolution": "3840x2160",
            "ratio": "1.78",
            "file_size": 3660089,
            "file_type": "image/png",
            "created_at": "2025-01-31 09:45:01",
            "colors": [
                "#66cccc",
                "#0099cc",
                "#cccc33",
                "#999999",
                "#cccccc"
            ],
            "path": "https://w.wallhaven.cc/full/gp/wallhaven-gpo27l.png",
            "thumbs": {
                "large": "https://th.wallhaven.cc/lg/gp/gpo27l.jpg",
                "original": "https://th.wallhaven.cc/orig/gp/gpo27l.jpg",
                "small": "https://th.wallhaven.cc/small/gp/gpo27l.jpg"
            }
        },
        {
            "id": "we2l2p",
            "url": "https://wallhaven.cc/w/we2l2p",
            "short_url": "https://whvn.cc/we2l2p",
            "views": 798,
            "favorites": 31,
            "source": "",
            "purity": "sfw",
            "category": "anime",
            "dimension_x": 2560,
            "dimension_y": 1440,
            "resolution": "2560x1440",
            "ratio": "1.78",
            "file_size": 5208256,
            "file_type": "image/png",
            "created_at": "2025-01-30 20:27:24",
            "colors": [
                "#abbcda",
                "#333399",
                "#999999",
                "#66cccc",
                "#424153"
            ],
            "path": "https://w.wallhaven.cc/full/we/wallhaven-we2l2p.png",
            "thumbs": {
                "large": "https://th.wallhaven.cc/lg/we/we2l2p.jpg",
                "original": "https://th.wallhaven.cc/orig/we/we2l2p.jpg",
                "small": "https://th.wallhaven.cc/small/we/we2l2p.jpg"
            }
        },
        {
            "id": "we2mlx",
            "url": "https://wallhaven.cc/w/we2mlx",
            "short_url": "https://whvn.cc/we2mlx",
            "views": 794,
            "favorites": 10,
            "source": "",
            "purity": "sfw",
            "category": "general",
            "dimension_x": 4470,
            "dimension_y": 2528,
            "resolution": "4470x2528",
            "ratio": "1.77",
            "file_size": 4072815,
            "file_type": "image/jpeg",
            "created_at": "2025-01-31 22:09:28",
            "colors": [
                "#000000",
                "#424153",
                "#999999",
                "#66cccc",
                "#333399"
            ],
            "path": "https://w.wallhaven.cc/full/we/wallhaven-we2mlx.jpg",
            "thumbs": {
                "large": "https://th.wallhaven.cc/lg/we/we2mlx.jpg",
                "original": "https://th.wallhaven.cc/orig/we/we2mlx.jpg",
                "small": "https://th.wallhaven.cc/small/we/we2mlx.jpg"
            }
        },
        {
            "id": "o5z23m",
            "url": "https://wallhaven.cc/w/o5z23m",
            "short_url": "https://whvn.cc/o5z23m",
            "views": 780,
            "favorites": 20,
            "source": "https://www.artstation.com/artwork/rl2zJ5",
            "purity": "sfw",
            "category": "general",
            "dimension_x": 3840,
            "dimension_y": 2160,
            "resolution": "3840x2160",
            "ratio": "1.78",
            "file_size": 4761660,
            "file_type": "image/png",
            "created_at": "2025-01-31 09:45:01",
            "colors": [
                "#0099cc",
                "#66cccc",
                "#e7d8b1",
                "#999999",
                "#cccc33"
            ],
            "path": "https://w.wallhaven.cc/full/o5/wallhaven-o5z23m.png",
            "thumbs": {
                "large": "https://th.wallhaven.cc/lg/o5/o5z23m.jpg",
                "original": "https://th.wallhaven.cc/orig/o5/o5z23m.jpg",
                "small": "https://th.wallhaven.cc/small/o5/o5z23m.jpg"
            }
        },
        {
            "id": "d6lweo",
            "url": "https://wallhaven.cc/w/d6lweo",
            "short_url": "https://whvn.cc/d6lweo",
            "views": 790,
            "favorites": 12,
            "source": "https://asoto.artstation.com/projects/n5NKX",
            "purity": "sfw",
            "category": "general",
            "dimension_x": 5120,
            "dimension_y": 2880,
            "resolution": "5120x2880",
            "ratio": "1.78",
            "file_size": 10746076,
            "file_type": "image/jpeg",
            "created_at": "2025-01-31 21:58:32",
            "colors": [
                "#333399",
                "#424153",
                "#0066cc",
                "#66cccc",
                "#0099cc"
            ],
            "path": "https://w.wallhaven.cc/full/d6/wallhaven-d6lweo.jpg",
            "thumbs": {
                "large": "https://th.wallhaven.cc/lg/d6/d6lweo.jpg",
                "original": "https://th.wallhaven.cc/orig/d6/d6lweo.jpg",
                "small": "https://th.wallhaven.cc/small/d6/d6lweo.jpg"
            }
        },
        {
            "id": "5g2ro1",
            "url": "https://wallhaven.cc/w/5g2ro1",
            "short_url": "https://whvn.cc/5g2ro1",
            "views": 730,
            "favorites": 34,
            "source": "",
            "purity": "sfw",
            "category": "general",
            "dimension_x": 3840,
            "dimension_y": 1920,
            "resolution": "3840x1920",
            "ratio": "2",
            "file_size": 2096957,
            "file_type": "image/jpeg",
            "created_at": "2025-02-01 09:22:51",
            "colors": [
                "#000000",
                "#424153",
                "#999999",
                "#abbcda",
                "#333399"
            ],
            "path": "https://w.wallhaven.cc/full/5g/wallhaven-5g2ro1.jpg",
            "thumbs": {
                "large": "https://th.wallhaven.cc/lg/5g/5g2ro1.jpg",
                "original": "https://th.wallhaven.cc/orig/5g/5g2ro1.jpg",
                "small": "https://th.wallhaven.cc/small/5g/5g2ro1.jpg"
            }
        },
        {
            "id": "yxyvl7",
            "url": "https://wallhaven.cc/w/yxyvl7",
            "short_url": "https://whvn.cc/yxyvl7",
            "views": 755,
            "favorites": 22,
            "source": "",
            "purity": "sfw",
            "category": "general",
            "dimension_x": 3840,
            "dimension_y": 2160,
            "resolution": "3840x2160",
            "ratio": "1.78",
            "file_size": 8108347,
            "file_type": "image/png",
            "created_at": "2025-02-01 08:36:03",
            "colors": [
                "#000000",
                "#424153",
                "#333399",
                "#66cccc",
                "#abbcda"
            ],
            "path": "https://w.wallhaven.cc/full/yx/wallhaven-yxyvl7.png",
            "thumbs": {
                "large": "https://th.wallhaven.cc/lg/yx/yxyvl7.jpg",
                "original": "https://th.wallhaven.cc/orig/yx/yxyvl7.jpg",
                "small": "https://th.wallhaven.cc/small/yx/yxyvl7.jpg"
            }
        },
        {
            "id": "l852wr",
            "url": "https://wallhaven.cc/w/l852wr",
            "short_url": "https://whvn.cc/l852wr",
            "views": 710,
            "favorites": 21,
            "source": "",
            "purity": "sfw",
            "category": "general",
            "dimension_x": 3840,
            "dimension_y": 2004,
            "resolution": "3840x2004",
            "ratio": "1.92",
            "file_size": 742286,
            "file_type": "image/jpeg",
            "created_at": "2025-01-31 20:14:48",
            "colors": [
                "#000000",
                "#424153",
                "#333399",
                "#663399",
                "#999999"
            ],
            "path": "https://w.wallhaven.cc/full/l8/wallhaven-l852wr.jpg",
            "thumbs": {
                "large": "https://th.wallhaven.cc/lg/l8/l852wr.jpg",
                "original": "https://th.wallhaven.cc/orig/l8/l852wr.jpg",
                "small": "https://th.wallhaven.cc/small/l8/l852wr.jpg"
            }
        },
        {
            "id": "kxp256",
            "url": "https://wallhaven.cc/w/kxp256",
            "short_url": "https://whvn.cc/kxp256",
            "views": 701,
            "favorites": 27,
            "source": "",
            "purity": "sfw",
            "category": "general",
            "dimension_x": 1920,
            "dimension_y": 1080,
            "resolution": "1920x1080",
            "ratio": "1.78",
            "file_size": 622164,
            "file_type": "image/jpeg",
            "created_at": "2025-02-01 09:22:51",
            "colors": [
                "#424153",
                "#333399",
                "#cccc33",
                "#cccccc",
                "#336600"
            ],
            "path": "https://w.wallhaven.cc/full/kx/wallhaven-kxp256.jpg",
            "thumbs": {
                "large": "https://th.wallhaven.cc/lg/kx/kxp256.jpg",
                "original": "https://th.wallhaven.cc/orig/kx/kxp256.jpg",
                "small": "https://th.wallhaven.cc/small/kx/kxp256.jpg"
            }
        },
        {
            "id": "m3x23k",
            "url": "https://wallhaven.cc/w/m3x23k",
            "short_url": "https://whvn.cc/m3x23k",
            "views": 688,
            "favorites": 30,
            "source": "",
            "purity": "sfw",
            "category": "anime",
            "dimension_x": 3380,
            "dimension_y": 4096,
            "resolution": "3380x4096",
            "ratio": "0.83",
            "file_size": 2042908,
            "file_type": "image/jpeg",
            "created_at": "2025-01-31 12:27:28",
            "colors": [
                "#333399",
                "#424153",
                "#cccccc",
                "#993399",
                "#999999"
            ],
            "path": "https://w.wallhaven.cc/full/m3/wallhaven-m3x23k.jpg",
            "thumbs": {
                "large": "https://th.wallhaven.cc/lg/m3/m3x23k.jpg",
                "original": "https://th.wallhaven.cc/orig/m3/m3x23k.jpg",
                "small": "https://th.wallhaven.cc/small/m3/m3x23k.jpg"
            }
        },
        {
            "id": "d6lwjj",
            "url": "https://wallhaven.cc/w/d6lwjj",
            "short_url": "https://whvn.cc/d6lwjj",
            "views": 712,
            "favorites": 25,
            "source": "",
            "purity": "sfw",
            "category": "general",
            "dimension_x": 2560,
            "dimension_y": 1738,
            "resolution": "2560x1738",
            "ratio": "1.47",
            "file_size": 1007388,
            "file_type": "image/jpeg",
            "created_at": "2025-02-01 10:14:05",
            "colors": [
                "#424153",
                "#999999",
                "#000000",
                "#0099cc",
                "#66cccc"
            ],
            "path": "https://w.wallhaven.cc/full/d6/wallhaven-d6lwjj.jpg",
            "thumbs": {
                "large": "https://th.wallhaven.cc/lg/d6/d6lwjj.jpg",
                "original": "https://th.wallhaven.cc/orig/d6/d6lwjj.jpg",
                "small": "https://th.wallhaven.cc/small/d6/d6lwjj.jpg"
            }
        },
        {
            "id": "rrkj11",
            "url": "https://wallhaven.cc/w/rrkj11",
            "short_url": "https://whvn.cc/rrkj11",
            "views": 709,
            "favorites": 24,
            "source": "https://www.artstation.com/artwork/JrOAKn",
            "purity": "sfw",
            "category": "general",
            "dimension_x": 1920,
            "dimension_y": 1427,
            "resolution": "1920x1427",
            "ratio": "1.35",
            "file_size": 663847,
            "file_type": "image/jpeg",
            "created_at": "2025-02-01 09:22:51",
            "colors": [
                "#0066cc",
                "#999999",
                "#424153",
                "#336600",
                "#cccccc"
            ],
            "path": "https://w.wallhaven.cc/full/rr/wallhaven-rrkj11.jpg",
            "thumbs": {
                "large": "https://th.wallhaven.cc/lg/rr/rrkj11.jpg",
                "original": "https://th.wallhaven.cc/orig/rr/rrkj11.jpg",
                "small": "https://th.wallhaven.cc/small/rr/rrkj11.jpg"
            }
        },
        {
            "id": "o5zlk7",
            "url": "https://wallhaven.cc/w/o5zlk7",
            "short_url": "https://whvn.cc/o5zlk7",
            "views": 671,
            "favorites": 4,
            "source": "",
            "purity": "sfw",
            "category": "general",
            "dimension_x": 3840,
            "dimension_y": 2160,
            "resolution": "3840x2160",
            "ratio": "1.78",
            "file_size": 10338794,
            "file_type": "image/png",
            "created_at": "2025-01-30 22:53:14",
            "colors": [
                "#000000",
                "#424153",
                "#663300",
                "#996633",
                "#999999"
            ],
            "path": "https://w.wallhaven.cc/full/o5/wallhaven-o5zlk7.png",
            "thumbs": {
                "large": "https://th.wallhaven.cc/lg/o5/o5zlk7.jpg",
                "original": "https://th.wallhaven.cc/orig/o5/o5zlk7.jpg",
                "small": "https://th.wallhaven.cc/small/o5/o5zlk7.jpg"
            }
        },
        {
            "id": "vqw5o5",
            "url": "https://wallhaven.cc/w/vqw5o5",
            "short_url": "https://whvn.cc/vqw5o5",
            "views": 698,
            "favorites": 38,
            "source": "https://x.com/Wuthering_Waves/status/1880782232148922793/photo/1",
            "purity": "sfw",
            "category": "anime",
            "dimension_x": 4096,
            "dimension_y": 2303,
            "resolution": "4096x2303",
            "ratio": "1.78",
            "file_size": 2498498,
            "file_type": "image/jpeg",
            "created_at": "2025-01-31 20:10:17",
            "colors": [
                "#424153",
                "#000000",
                "#999999",
                "#cccccc",
                "#996633"
            ],
            "path": "https://w.wallhaven.cc/full/vq/wallhaven-vqw5o5.jpg",
            "thumbs": {
                "large": "https://th.wallhaven.cc/lg/vq/vqw5o5.jpg",
                "original": "https://th.wallhaven.cc/orig/vq/vqw5o5.jpg",
                "small": "https://th.wallhaven.cc/small/vq/vqw5o5.jpg"
            }
        },
        {
            "id": "jxmvxq",
            "url": "https://wallhaven.cc/w/jxmvxq",
            "short_url": "https://whvn.cc/jxmvxq",
            "views": 655,
            "favorites": 16,
            "source": "",
            "purity": "sfw",
            "category": "anime",
            "dimension_x": 1237,
            "dimension_y": 1920,
            "resolution": "1237x1920",
            "ratio": "0.64",
            "file_size": 174488,
            "file_type": "image/jpeg",
            "created_at": "2025-01-31 12:27:28",
            "colors": [
                "#000000",
                "#424153",
                "#999999",
                "#abbcda",
                "#cccccc"
            ],
            "path": "https://w.wallhaven.cc/full/jx/wallhaven-jxmvxq.jpg",
            "thumbs": {
                "large": "https://th.wallhaven.cc/lg/jx/jxmvxq.jpg",
                "original": "https://th.wallhaven.cc/orig/jx/jxmvxq.jpg",
                "small": "https://th.wallhaven.cc/small/jx/jxmvxq.jpg"
            }
        },
        {
            "id": "we2mj7",
            "url": "https://wallhaven.cc/w/we2mj7",
            "short_url": "https://whvn.cc/we2mj7",
            "views": 672,
            "favorites": 26,
            "source": "https://www.artstation.com/artwork/dyeaEe?notification_id=6826706221",
            "purity": "sfw",
            "category": "general",
            "dimension_x": 3840,
            "dimension_y": 1477,
            "resolution": "3840x1477",
            "ratio": "2.6",
            "file_size": 1214637,
            "file_type": "image/jpeg",
            "created_at": "2025-02-01 09:22:51",
            "colors": [
                "#000000",
                "#999999",
                "#424153",
                "#cccccc",
                "#abbcda"
            ],
            "path": "https://w.wallhaven.cc/full/we/wallhaven-we2mj7.jpg",
            "thumbs": {
                "large": "https://th.wallhaven.cc/lg/we/we2mj7.jpg",
                "original": "https://th.wallhaven.cc/orig/we/we2mj7.jpg",
                "small": "https://th.wallhaven.cc/small/we/we2mj7.jpg"
            }
        }
    ],
    "meta": {
        "current_page": 1,
        "last_page": 9,
        "per_page": "24",
        "total": 195,
        "query": null,
        "seed": null
    }
}